{
    "appPageId": "8ffea4de-2201-6c37-cd5b-3327a18543b6",
    "appPageName": "profile",
    "componentName": "profileComponent",
    "selectorName": "bh-profile",
    "htmlFileName": "profile.template.html",
    "tsFileName": "profile.component.ts",
    "bkd": {
        "designerHtml": "",
        "designerReference": {},
        "ts": ""
    }
}
