[
    {
        "id": "sd_qXCoIvNEDpuyWPeI",
        "type": "tab",
        "createdDate": "2020-01-31T07:18:40.090Z",
        "label": "uiservices",
        "disabled": false,
        "info": "",
        "generateNext": true,
        "generated": false,
        "serviceName": "uiservices"
    },
    {
        "id": "sd_0G3MhDk2CH7h7375",
        "type": "Start",
        "z": "sd_qXCoIvNEDpuyWPeI",
        "name": "login",
        "outputs": 1,
        "noerr": 0,
        "inputVariables": [
            {
                "key": "data",
                "defaultValue": {
                    "type": "str",
                    "value": ""
                },
                "output": false
            }
        ],
        "localVariables": [
            {
                "key": "modelrapiur",
                "defaultValue": {
                    "type": "str",
                    "value": ""
                },
                "output": false
            },
            {
                "key": "result",
                "defaultValue": {
                    "type": "str",
                    "value": ""
                },
                "output": true
            }
        ],
        "functionName": "login",
        "x": 105.1875,
        "y": 68.921875,
        "wires": [
            [
                "sd_MRcvqbam22LR5xCV"
            ]
        ],
        "generateNext": true,
        "generated": false,
        "serviceName": "uiservices"
    },
    {
        "id": "sd_MRcvqbam22LR5xCV",
        "type": "Script",
        "z": "sd_qXCoIvNEDpuyWPeI",
        "name": "",
        "script": "console.log('test');\nbh.local.modelrapiur = `http://localhost:24483/api/login`",
        "x": 271.03125,
        "y": 67.921875,
        "wires": [
            [
                "sd_tKPnPw6bjrBAWfNf"
            ]
        ],
        "generateNext": false,
        "generated": true,
        "serviceName": "uiservices"
    },
    {
        "id": "sd_tKPnPw6bjrBAWfNf",
        "type": "HttpRequest",
        "z": "sd_qXCoIvNEDpuyWPeI",
        "name": "",
        "method": "post",
        "methodMappingObj": {},
        "urlMapping": "bh.local.modelrapiur",
        "urlMappingObj": {
            "mapVarType": "bh.local",
            "mapVarValue": "modelrapiur"
        },
        "ret": "json",
        "retMappingObj": {},
        "reqBody": "bh.input.data",
        "reqBodyObj": {
            "mapVarType": "bh.input",
            "mapVarValue": "data"
        },
        "resultMapping": "bh.local.result",
        "resultMappingObj": {
            "mapVarType": "bh.local",
            "mapVarValue": "result"
        },
        "headers": {},
        "headersObj": [],
        "headerMappingObj": {},
        "params": {},
        "paramsObj": [],
        "paramMappingObj": {},
        "x": 452.03125,
        "y": 69.90625,
        "wires": [
            []
        ],
        "generateNext": false,
        "generated": true,
        "serviceName": "uiservices"
    },
    {
        "id": "sd_lDKWe0UIKlZSFpPl",
        "type": "Start",
        "z": "sd_qXCoIvNEDpuyWPeI",
        "name": "getuserbyemail",
        "outputs": 1,
        "noerr": 0,
        "inputVariables": [
            {
                "key": "data",
                "defaultValue": {
                    "type": "str",
                    "value": ""
                },
                "output": false
            }
        ],
        "localVariables": [
            {
                "key": "modelrurl",
                "defaultValue": {
                    "type": "str",
                    "value": ""
                },
                "output": false
            },
            {
                "key": "result",
                "defaultValue": {
                    "type": "str",
                    "value": ""
                },
                "output": true
            }
        ],
        "functionName": "getuserbyemail",
        "x": 78.1875,
        "y": 167.921875,
        "wires": [
            [
                "sd_2oH3zOrrc5P0t2U3"
            ]
        ],
        "generateNext": true,
        "generated": false,
        "serviceName": "uiservices"
    },
    {
        "id": "sd_2oH3zOrrc5P0t2U3",
        "type": "Script",
        "z": "sd_qXCoIvNEDpuyWPeI",
        "name": "",
        "script": "bh.local.modelrurl = `http://localhost:24483/api/profile?data=${bh.input.data}`;\n",
        "x": 261.03125,
        "y": 169.921875,
        "wires": [
            [
                "sd_52Slw5qw77AFPTMz"
            ]
        ],
        "generateNext": false,
        "generated": true
    },
    {
        "id": "sd_52Slw5qw77AFPTMz",
        "type": "HttpRequest",
        "z": "sd_qXCoIvNEDpuyWPeI",
        "name": "",
        "method": "get",
        "methodMappingObj": {},
        "urlMapping": "bh.local.modelrurl",
        "urlMappingObj": {
            "mapVarType": "bh.local",
            "mapVarValue": "modelrurl"
        },
        "ret": "json",
        "retMappingObj": {},
        "reqBodyObj": {
            "mapVarType": "bh.input",
            "mapVarValue": ""
        },
        "resultMapping": "bh.local.result",
        "resultMappingObj": {
            "mapVarType": "bh.local",
            "mapVarValue": "result"
        },
        "headers": {},
        "headersObj": [],
        "headerMappingObj": {},
        "params": {},
        "paramsObj": [],
        "paramMappingObj": {},
        "x": 418.03125,
        "y": 171.90625,
        "wires": [
            []
        ],
        "generateNext": false,
        "generated": true
    },
    {
        "id": "sd_YJ4SVvJYUdf7fLV3",
        "type": "Start",
        "z": "sd_qXCoIvNEDpuyWPeI",
        "name": "register",
        "outputs": 1,
        "noerr": 0,
        "inputVariables": [
            {
                "key": "data",
                "defaultValue": {
                    "type": "str",
                    "value": ""
                },
                "output": false
            }
        ],
        "localVariables": [
            {
                "key": "modelrurl",
                "defaultValue": {
                    "type": "str",
                    "value": ""
                },
                "output": false
            },
            {
                "key": "result",
                "defaultValue": {
                    "type": "str",
                    "value": ""
                },
                "output": true
            }
        ],
        "functionName": "register",
        "x": 100.1875,
        "y": 272.921875,
        "wires": [
            [
                "sd_g8OjqR3fbs5ZdsAb"
            ]
        ],
        "generateNext": true,
        "generated": false,
        "serviceName": "uiservices"
    },
    {
        "id": "sd_g8OjqR3fbs5ZdsAb",
        "type": "Script",
        "z": "sd_qXCoIvNEDpuyWPeI",
        "name": "",
        "script": "bh.local.modelrurl = `http://localhost:24483/api/register`",
        "x": 259.03125,
        "y": 274.921875,
        "wires": [
            [
                "sd_1TXM1E2ZJdfVOYMJ"
            ]
        ],
        "generateNext": false,
        "generated": true
    },
    {
        "id": "sd_1TXM1E2ZJdfVOYMJ",
        "type": "HttpRequest",
        "z": "sd_qXCoIvNEDpuyWPeI",
        "name": "",
        "method": "post",
        "methodMappingObj": {},
        "urlMapping": "bh.local.modelrurl",
        "urlMappingObj": {
            "mapVarType": "bh.local",
            "mapVarValue": "modelrurl"
        },
        "ret": "json",
        "retMappingObj": {},
        "reqBody": "bh.input.data",
        "reqBodyObj": {
            "mapVarType": "bh.input",
            "mapVarValue": "data"
        },
        "resultMapping": "bh.local.result",
        "resultMappingObj": {
            "mapVarType": "bh.local",
            "mapVarValue": "result"
        },
        "headers": {},
        "headersObj": [],
        "headerMappingObj": {},
        "params": {},
        "paramsObj": [],
        "paramMappingObj": {},
        "x": 428.03125,
        "y": 273.90625,
        "wires": [
            []
        ],
        "generateNext": false,
        "generated": true
    },
    {
        "id": "sd_1ukyxrMYOFyApUB5",
        "type": "Start",
        "z": "sd_qXCoIvNEDpuyWPeI",
        "name": "getticketbymobile",
        "outputs": 1,
        "noerr": 0,
        "inputVariables": [
            {
                "key": "data",
                "defaultValue": {
                    "type": "str",
                    "value": ""
                },
                "output": false
            }
        ],
        "localVariables": [
            {
                "key": "result",
                "defaultValue": {
                    "type": "str",
                    "value": ""
                },
                "output": true
            },
            {
                "key": "modelrApiUrl",
                "defaultValue": {
                    "type": "str",
                    "value": ""
                },
                "output": false
            }
        ],
        "functionName": "getticketbymobile",
        "x": 141.1875,
        "y": 382.921875,
        "wires": [
            [
                "sd_8MiEjqW5zbYo1Ki4"
            ]
        ],
        "generateNext": true,
        "generated": false,
        "serviceName": "uiservices"
    },
    {
        "id": "sd_8MiEjqW5zbYo1Ki4",
        "type": "Script",
        "z": "sd_qXCoIvNEDpuyWPeI",
        "name": "",
        "script": "bh.local.modelrApiUrl = `http://localhost:24483/api/seller?mobile=${bh.input.data}`;\n",
        "x": 299.03125,
        "y": 386.921875,
        "wires": [
            [
                "sd_B8FQHUEPquU0uufC"
            ]
        ],
        "generateNext": false,
        "generated": true
    },
    {
        "id": "sd_B8FQHUEPquU0uufC",
        "type": "HttpRequest",
        "z": "sd_qXCoIvNEDpuyWPeI",
        "name": "",
        "method": "get",
        "methodMappingObj": {},
        "urlMapping": "bh.local.modelrApiUrl",
        "urlMappingObj": {
            "mapVarType": "bh.local",
            "mapVarValue": "modelrApiUrl"
        },
        "ret": "json",
        "retMappingObj": {},
        "reqBodyObj": {
            "mapVarType": "bh.input",
            "mapVarValue": ""
        },
        "resultMapping": "bh.local.result",
        "resultMappingObj": {
            "mapVarType": "bh.local",
            "mapVarValue": "result"
        },
        "headers": {},
        "headersObj": [],
        "headerMappingObj": {},
        "params": {},
        "paramsObj": [],
        "paramMappingObj": {},
        "x": 466.03125,
        "y": 384.90625,
        "wires": [
            []
        ],
        "generateNext": false,
        "generated": true
    },
    {
        "id": "sd_q6SGO1zs6bLhDxiO",
        "type": "Start",
        "z": "sd_qXCoIvNEDpuyWPeI",
        "name": "getpoints",
        "outputs": 1,
        "noerr": 0,
        "inputVariables": [
            {
                "key": "data",
                "defaultValue": {
                    "type": "str",
                    "value": ""
                },
                "output": false
            }
        ],
        "localVariables": [
            {
                "key": "modelrapiurl",
                "defaultValue": {
                    "type": "str",
                    "value": ""
                },
                "output": false
            },
            {
                "key": "result",
                "defaultValue": {
                    "type": "str",
                    "value": ""
                },
                "output": true
            }
        ],
        "functionName": "getpoints",
        "x": 160.1875,
        "y": 501.921875,
        "wires": [
            [
                "sd_p3SQ3q9icCyc1FH3"
            ]
        ],
        "generateNext": true,
        "generated": false,
        "serviceName": "uiservices"
    },
    {
        "id": "sd_p3SQ3q9icCyc1FH3",
        "type": "Script",
        "z": "sd_qXCoIvNEDpuyWPeI",
        "name": "",
        "script": "console.log(bh.input.data);\nbh.local.modelrapiurl = `http://localhost:24483/api/transactiondetails?data=${bh.input.data}`;\n",
        "x": 291.03125,
        "y": 498.921875,
        "wires": [
            [
                "sd_CDEOFjdzEibsfzqr"
            ]
        ],
        "generateNext": false,
        "generated": true
    },
    {
        "id": "sd_CDEOFjdzEibsfzqr",
        "type": "HttpRequest",
        "z": "sd_qXCoIvNEDpuyWPeI",
        "name": "",
        "method": "get",
        "methodMappingObj": {},
        "urlMapping": "bh.local.modelrapiurl",
        "urlMappingObj": {
            "mapVarType": "bh.local",
            "mapVarValue": "modelrapiurl"
        },
        "ret": "json",
        "retMappingObj": {},
        "reqBodyObj": {
            "mapVarType": "bh.input",
            "mapVarValue": ""
        },
        "resultMapping": "bh.local.result",
        "resultMappingObj": {
            "mapVarType": "bh.local",
            "mapVarValue": "result"
        },
        "headers": {},
        "headersObj": [],
        "headerMappingObj": {},
        "params": {},
        "paramsObj": [],
        "paramMappingObj": {},
        "x": 451.03125,
        "y": 500.90625,
        "wires": [
            []
        ],
        "generateNext": false,
        "generated": true
    }
]
