{
    "4896217f-5678-a1c3-b2da-a0e065a24802": {
        "paletteKey": "FlexLayoutCol",
        "designerReference": [
            {
                "_key": "componentLabel",
                "_value": "Column",
                "_type": "kv",
                "_attrDef": "p",
                "_useAsLabel": true
            },
            {
                "_key": "style",
                "_value": "",
                "_type": "kv",
                "_attrDef": "p"
            },
            {
                "_key": "class",
                "_value": "buyerticket-details",
                "_type": "kv",
                "_attrDef": "p"
            },
            {
                "_key": "fxFlex",
                "_value": "",
                "_type": "kv",
                "_attrDef": "p"
            },
            {
                "_key": "fxLayoutGap",
                "_value": "",
                "_type": "kv",
                "_attrDef": "p"
            },
            {
                "_key": "wrap",
                "_value": "wrap",
                "_type": "a",
                "_attrDef": "p"
            },
            {
                "_key": "layoutAlign",
                "_value": "center",
                "_type": "a",
                "_attrDef": "p"
            },
            {
                "_key": "pLayoutAlign",
                "_value": "center",
                "_type": "a",
                "_attrDef": "p"
            },
            {
                "_key": "[fxShow]",
                "_value": "true",
                "_type": "kv",
                "_attrDef": "p"
            },
            {
                "_key": "[fxHide]",
                "_value": "false",
                "_type": "kv",
                "_attrDef": "p"
            }
        ],
        "4b79f828-b352-0cbb-38ff-50bd898aa93c": {
            "paletteKey": "Html5",
            "parentEditorKey": "4896217f-5678-a1c3-b2da-a0e065a24802",
            "isAdvancedComponent": true,
            "designerReference": [
                {
                    "_key": "style",
                    "_value": "",
                    "_type": "kv",
                    "_attrDef": "p"
                },
                {
                    "_key": "class",
                    "_value": "by-ticket-welcm",
                    "_type": "kv",
                    "_attrDef": "p"
                },
                {
                    "_key": "htmlElement",
                    "_value": "div",
                    "_type": "dav",
                    "_attrDef": "p",
                    "_useAsLabel": true
                },
                {
                    "_key": "tagType",
                    "_value": "",
                    "_type": "a",
                    "_attrDef": "p",
                    "_visibility": false
                },
                {
                    "_key": "name",
                    "_value": "",
                    "_type": "kv",
                    "_attrDef": "p",
                    "_visibility": false
                },
                {
                    "_key": "sandbox",
                    "_value": "",
                    "_type": "kv",
                    "_attrDef": "p",
                    "_visibility": false
                },
                {
                    "_key": "src",
                    "_value": "",
                    "_type": "kv",
                    "_attrDef": "p",
                    "_visibility": false
                },
                {
                    "_key": "srcdoc",
                    "_value": "",
                    "_type": "kv",
                    "_attrDef": "p",
                    "_visibility": false
                },
                {
                    "_key": "width",
                    "_value": "",
                    "_type": "kv",
                    "_attrDef": "p",
                    "_visibility": false
                },
                {
                    "_key": "[autoplay]",
                    "_value": "",
                    "_type": "kv",
                    "_attrDef": "p",
                    "_visibility": false
                },
                {
                    "_key": "[loop]",
                    "_value": "",
                    "_type": "kv",
                    "_attrDef": "p",
                    "_visibility": false
                },
                {
                    "_key": "data",
                    "_value": "",
                    "_type": "kv",
                    "_attrDef": "p",
                    "_visibility": false
                },
                {
                    "_key": "audioSource",
                    "_value": [],
                    "_type": "a",
                    "_attrDef": "p",
                    "_visibility": false
                },
                {
                    "_key": "videoSource",
                    "_value": [],
                    "_type": "a",
                    "_attrDef": "p",
                    "_visibility": false
                },
                {
                    "_key": "audioDatasource",
                    "_value": "",
                    "_type": "a",
                    "_attrDef": "p",
                    "_visibility": false
                },
                {
                    "_key": "audioSrc",
                    "_value": "",
                    "_type": "a",
                    "_attrDef": "p",
                    "_visibility": false
                },
                {
                    "_key": "audioType",
                    "_value": "",
                    "_type": "a",
                    "_attrDef": "p",
                    "_visibility": false
                },
                {
                    "_key": "videoDatasource",
                    "_value": "",
                    "_type": "a",
                    "_attrDef": "p",
                    "_visibility": false
                },
                {
                    "_key": "videoSrc",
                    "_value": "",
                    "_type": "a",
                    "_attrDef": "p",
                    "_visibility": false
                },
                {
                    "_key": "videoType",
                    "_value": "",
                    "_type": "a",
                    "_attrDef": "p",
                    "_visibility": false
                },
                {
                    "_key": "(audioplay)",
                    "_value": "",
                    "_type": "a",
                    "_attrDef": "p",
                    "_visibility": false
                },
                {
                    "_key": "(videoplay)",
                    "_value": "",
                    "_type": "a",
                    "_attrDef": "p",
                    "_visibility": false
                },
                {
                    "_key": "(audiopause)",
                    "_value": "",
                    "_type": "kv",
                    "_attrDef": "p",
                    "_visibility": false
                },
                {
                    "_key": "(videopause)",
                    "_value": "",
                    "_type": "kv",
                    "_attrDef": "p",
                    "_visibility": false
                },
                {
                    "_key": "(audioended)",
                    "_value": "",
                    "_type": "kv",
                    "_attrDef": "p",
                    "_visibility": false
                },
                {
                    "_key": "(videoended)",
                    "_value": "",
                    "_type": "kv",
                    "_attrDef": "p",
                    "_visibility": false
                }
            ],
            "62fc81d0-0aeb-7982-cb03-a81f726d68d4": {
                "paletteKey": "html-editor",
                "parentEditorKey": "4b79f828-b352-0cbb-38ff-50bd898aa93c",
                "isAdvancedChildComponent": true,
                "designerReference": [
                    {
                        "_key": "style",
                        "_value": "",
                        "_type": "kv",
                        "_attrDef": "p"
                    },
                    {
                        "_key": "class",
                        "_value": "",
                        "_type": "kv",
                        "_attrDef": "p"
                    },
                    {
                        "_key": "html",
                        "_value": "Welcome!",
                        "_type": "a",
                        "_attrDef": "p"
                    }
                ]
            }
        },
        "504250ac-0b44-0700-f07f-5c968bf69924": {
            "paletteKey": "Html5",
            "parentEditorKey": "4896217f-5678-a1c3-b2da-a0e065a24802",
            "isAdvancedComponent": true,
            "designerReference": [
                {
                    "_key": "style",
                    "_value": "",
                    "_type": "kv",
                    "_attrDef": "p"
                },
                {
                    "_key": "class",
                    "_value": "by-ticket-information",
                    "_type": "kv",
                    "_attrDef": "p"
                },
                {
                    "_key": "htmlElement",
                    "_value": "div",
                    "_type": "dav",
                    "_attrDef": "p",
                    "_useAsLabel": true
                },
                {
                    "_key": "tagType",
                    "_value": "",
                    "_type": "a",
                    "_attrDef": "p",
                    "_visibility": false
                },
                {
                    "_key": "name",
                    "_value": "",
                    "_type": "kv",
                    "_attrDef": "p",
                    "_visibility": false
                },
                {
                    "_key": "sandbox",
                    "_value": "",
                    "_type": "kv",
                    "_attrDef": "p",
                    "_visibility": false
                },
                {
                    "_key": "src",
                    "_value": "",
                    "_type": "kv",
                    "_attrDef": "p",
                    "_visibility": false
                },
                {
                    "_key": "srcdoc",
                    "_value": "",
                    "_type": "kv",
                    "_attrDef": "p",
                    "_visibility": false
                },
                {
                    "_key": "width",
                    "_value": "",
                    "_type": "kv",
                    "_attrDef": "p",
                    "_visibility": false
                },
                {
                    "_key": "[autoplay]",
                    "_value": "",
                    "_type": "kv",
                    "_attrDef": "p",
                    "_visibility": false
                },
                {
                    "_key": "[loop]",
                    "_value": "",
                    "_type": "kv",
                    "_attrDef": "p",
                    "_visibility": false
                },
                {
                    "_key": "data",
                    "_value": "",
                    "_type": "kv",
                    "_attrDef": "p",
                    "_visibility": false
                },
                {
                    "_key": "audioSource",
                    "_value": [],
                    "_type": "a",
                    "_attrDef": "p",
                    "_visibility": false
                },
                {
                    "_key": "videoSource",
                    "_value": [],
                    "_type": "a",
                    "_attrDef": "p",
                    "_visibility": false
                },
                {
                    "_key": "audioDatasource",
                    "_value": "",
                    "_type": "a",
                    "_attrDef": "p",
                    "_visibility": false
                },
                {
                    "_key": "audioSrc",
                    "_value": "",
                    "_type": "a",
                    "_attrDef": "p",
                    "_visibility": false
                },
                {
                    "_key": "audioType",
                    "_value": "",
                    "_type": "a",
                    "_attrDef": "p",
                    "_visibility": false
                },
                {
                    "_key": "videoDatasource",
                    "_value": "",
                    "_type": "a",
                    "_attrDef": "p",
                    "_visibility": false
                },
                {
                    "_key": "videoSrc",
                    "_value": "",
                    "_type": "a",
                    "_attrDef": "p",
                    "_visibility": false
                },
                {
                    "_key": "videoType",
                    "_value": "",
                    "_type": "a",
                    "_attrDef": "p",
                    "_visibility": false
                },
                {
                    "_key": "(audioplay)",
                    "_value": "",
                    "_type": "a",
                    "_attrDef": "p",
                    "_visibility": false
                },
                {
                    "_key": "(videoplay)",
                    "_value": "",
                    "_type": "a",
                    "_attrDef": "p",
                    "_visibility": false
                },
                {
                    "_key": "(audiopause)",
                    "_value": "",
                    "_type": "kv",
                    "_attrDef": "p",
                    "_visibility": false
                },
                {
                    "_key": "(videopause)",
                    "_value": "",
                    "_type": "kv",
                    "_attrDef": "p",
                    "_visibility": false
                },
                {
                    "_key": "(audioended)",
                    "_value": "",
                    "_type": "kv",
                    "_attrDef": "p",
                    "_visibility": false
                },
                {
                    "_key": "(videoended)",
                    "_value": "",
                    "_type": "kv",
                    "_attrDef": "p",
                    "_visibility": false
                }
            ],
            "820bb71b-5062-1d47-22e5-b0afe3d00fc8": {
                "paletteKey": "html-editor",
                "parentEditorKey": "504250ac-0b44-0700-f07f-5c968bf69924",
                "isAdvancedChildComponent": true,
                "designerReference": [
                    {
                        "_key": "style",
                        "_value": "",
                        "_type": "kv",
                        "_attrDef": "p"
                    },
                    {
                        "_key": "class",
                        "_value": "",
                        "_type": "kv",
                        "_attrDef": "p"
                    },
                    {
                        "_key": "html",
                        "_value": "CLICK TO BOOK YOUR SHOW",
                        "_type": "a",
                        "_attrDef": "p"
                    }
                ]
            }
        },
        "431ed489-3132-c676-ff04-f1f33aa1b5ae": {
            "paletteKey": "Html5",
            "parentEditorKey": "4896217f-5678-a1c3-b2da-a0e065a24802",
            "isAdvancedComponent": true,
            "designerReference": [
                {
                    "_key": "style",
                    "_value": "",
                    "_type": "kv",
                    "_attrDef": "p"
                },
                {
                    "_key": "class",
                    "_value": "by-ticket-price",
                    "_type": "kv",
                    "_attrDef": "p"
                },
                {
                    "_key": "htmlElement",
                    "_value": "div",
                    "_type": "dav",
                    "_attrDef": "p",
                    "_useAsLabel": true
                },
                {
                    "_key": "tagType",
                    "_value": "",
                    "_type": "a",
                    "_attrDef": "p",
                    "_visibility": false
                },
                {
                    "_key": "name",
                    "_value": "",
                    "_type": "kv",
                    "_attrDef": "p",
                    "_visibility": false
                },
                {
                    "_key": "sandbox",
                    "_value": "",
                    "_type": "kv",
                    "_attrDef": "p",
                    "_visibility": false
                },
                {
                    "_key": "src",
                    "_value": "",
                    "_type": "kv",
                    "_attrDef": "p",
                    "_visibility": false
                },
                {
                    "_key": "srcdoc",
                    "_value": "",
                    "_type": "kv",
                    "_attrDef": "p",
                    "_visibility": false
                },
                {
                    "_key": "width",
                    "_value": "",
                    "_type": "kv",
                    "_attrDef": "p",
                    "_visibility": false
                },
                {
                    "_key": "[autoplay]",
                    "_value": "",
                    "_type": "kv",
                    "_attrDef": "p",
                    "_visibility": false
                },
                {
                    "_key": "[loop]",
                    "_value": "",
                    "_type": "kv",
                    "_attrDef": "p",
                    "_visibility": false
                },
                {
                    "_key": "data",
                    "_value": "",
                    "_type": "kv",
                    "_attrDef": "p",
                    "_visibility": false
                },
                {
                    "_key": "audioSource",
                    "_value": [],
                    "_type": "a",
                    "_attrDef": "p",
                    "_visibility": false
                },
                {
                    "_key": "videoSource",
                    "_value": [],
                    "_type": "a",
                    "_attrDef": "p",
                    "_visibility": false
                },
                {
                    "_key": "audioDatasource",
                    "_value": "",
                    "_type": "a",
                    "_attrDef": "p",
                    "_visibility": false
                },
                {
                    "_key": "audioSrc",
                    "_value": "",
                    "_type": "a",
                    "_attrDef": "p",
                    "_visibility": false
                },
                {
                    "_key": "audioType",
                    "_value": "",
                    "_type": "a",
                    "_attrDef": "p",
                    "_visibility": false
                },
                {
                    "_key": "videoDatasource",
                    "_value": "",
                    "_type": "a",
                    "_attrDef": "p",
                    "_visibility": false
                },
                {
                    "_key": "videoSrc",
                    "_value": "",
                    "_type": "a",
                    "_attrDef": "p",
                    "_visibility": false
                },
                {
                    "_key": "videoType",
                    "_value": "",
                    "_type": "a",
                    "_attrDef": "p",
                    "_visibility": false
                },
                {
                    "_key": "(audioplay)",
                    "_value": "",
                    "_type": "a",
                    "_attrDef": "p",
                    "_visibility": false
                },
                {
                    "_key": "(videoplay)",
                    "_value": "",
                    "_type": "a",
                    "_attrDef": "p",
                    "_visibility": false
                },
                {
                    "_key": "(audiopause)",
                    "_value": "",
                    "_type": "kv",
                    "_attrDef": "p",
                    "_visibility": false
                },
                {
                    "_key": "(videopause)",
                    "_value": "",
                    "_type": "kv",
                    "_attrDef": "p",
                    "_visibility": false
                },
                {
                    "_key": "(audioended)",
                    "_value": "",
                    "_type": "kv",
                    "_attrDef": "p",
                    "_visibility": false
                },
                {
                    "_key": "(videoended)",
                    "_value": "",
                    "_type": "kv",
                    "_attrDef": "p",
                    "_visibility": false
                }
            ],
            "f58338cd-f6a4-95d9-7ba2-aadbf6c954ea": {
                "paletteKey": "html-editor",
                "parentEditorKey": "431ed489-3132-c676-ff04-f1f33aa1b5ae",
                "isAdvancedChildComponent": true,
                "designerReference": [
                    {
                        "_key": "style",
                        "_value": "",
                        "_type": "kv",
                        "_attrDef": "p"
                    },
                    {
                        "_key": "class",
                        "_value": "",
                        "_type": "kv",
                        "_attrDef": "p"
                    },
                    {
                        "_key": "html",
                        "_value": "{{data.amount}}",
                        "_type": "a",
                        "_attrDef": "p"
                    }
                ]
            }
        },
        "1b52ebeb-2489-6fdb-8403-6647aff8eeb4": {
            "paletteKey": "NG-RaisedButton",
            "parentEditorKey": "4896217f-5678-a1c3-b2da-a0e065a24802",
            "designerReference": [
                {
                    "_key": "style",
                    "_value": "",
                    "_type": "kv",
                    "_attrDef": "p"
                },
                {
                    "_key": "class",
                    "_value": "new-style-btn",
                    "_type": "kv",
                    "_attrDef": "p"
                },
                {
                    "_key": "buttonname",
                    "_value": "Book Your Ticket",
                    "_type": "a",
                    "_attrDef": "p",
                    "_useAsLabel": true
                },
                {
                    "_key": "color",
                    "_value": "",
                    "_type": "kv",
                    "_attrDef": "p"
                },
                {
                    "_key": "(click)",
                    "_value": "buy()",
                    "_type": "kv",
                    "_attrDef": "p"
                },
                {
                    "_key": "[disabled]",
                    "_value": "",
                    "_type": "kv",
                    "_attrDef": "p"
                },
                {
                    "_key": "[disableRipple]",
                    "_value": "",
                    "_type": "kv",
                    "_attrDef": "p"
                },
                {
                    "_key": "type",
                    "_value": "",
                    "_type": "kv",
                    "_attrDef": "p"
                },
                {
                    "_key": "routerLink",
                    "_value": "",
                    "_type": "kv",
                    "_attrDef": "p"
                }
            ]
        }
    }
}
